,mean_fit_time,std_fit_time,mean_score_time,std_score_time,param_n_neighbors,params,split0_test_score,split1_test_score,split2_test_score,split3_test_score,split4_test_score,mean_test_score,std_test_score,rank_test_score
0,0.008447551727294922,0.002625792055561789,0.015170907974243164,0.002342811685123732,3,{'n_neighbors': 3},0.61241288625904,0.6063247863247864,0.5362130177514793,0.580822098863336,0.5664816283372984,0.580450883507188,0.0277247006273689,4
1,0.009403562545776368,0.0014693730770718198,0.015125656127929687,0.0032484966138677995,5,{'n_neighbors': 5},0.601025641025641,0.6311242603550296,0.4894806048652202,0.5513481363996828,0.574610097805974,0.5695177480903096,0.04806271066200004,6
2,0.006321525573730469,0.0008308802936731328,0.011556100845336915,0.001288742110830248,10,{'n_neighbors': 10},0.6292702169625247,0.6218014464168311,0.5099013806706114,0.5627279936558288,0.5731297911710284,0.5793661657753649,0.04343327037501359,5
3,0.0062634944915771484,0.0005572326865150733,0.01269683837890625,0.0005297543999098776,25,{'n_neighbors': 25},0.587034845496384,0.6947008547008546,0.5599474030243261,0.6046259582342057,0.6267116045466561,0.6146041332004853,0.045626885519887826,3
4,0.006270837783813476,0.0007446572545588524,0.014267253875732421,0.0015391996311469806,50,{'n_neighbors': 50},0.591913214990138,0.6391452991452992,0.5823668639053254,0.6218213058419244,0.6985461274121068,0.6267585622589588,0.041270045726267676,1
5,0.005368089675903321,0.0005664837199818641,0.016515731811523438,0.0009681267931536453,100,{'n_neighbors': 100},0.6126364234056543,0.6305193951347798,0.5866009204470743,0.6666270155960877,0.6109965635738831,0.6214760636314959,0.026550424030138936,2
